Sammenhenger mellom inntekt, alder, kjønn og sivilstatus
…
Flere økonomiske teorier viser at inntekt typisk følger et livsløp der den øker med alder og erfaring frem til et viss punkt før den flater ut. Seeborg (2004) kontrollerte for alder i sine regresjonsmodeller og fant en tydelig positiv sammenheng mellom utdanning, alder og inntekt. Dette støtter teorien om at erfaring og utdanning bygges opp over tid og bidrar til høyere økonomisk utbytte.

Samlet perspektiv

Når vi kombinerer funnene fra Judge & Cable (2004), Seeborg (2004), Xie (2022) og Mohan-Neill & colleagues (2014), ser vi at inntektforskjeller pårvirkes av både individuelle faktorer (som alder og utdanning) og sosiale faktorer (som kjønn og sivilsatus). Forskningen viser tydelig at kjønn og familieforhold fortsatt har stor betydning for økonomisk velstand, og at effekten av alder og utdanning i mange tilfeller forsterkes eller svekkes av sosiale roller og strukturer. Dette gir et solid teoretisk grunnlag for å analysere sammenhengen mellom inntekt, alder, kjønn og sivilstatus i vårt datasett fra modelr::heights.

Description of data

Første punkt

Laster inn og rydder datassettet ‘heights’

Datasettet ‘heights’ som benyttes i denne oppgaven er hentet fra pakken ‘modelr’. Datasettet inneholder informasjon om enkeltpersoner, og består av 7006 observasjoner og 8 variabler: inntekt, høyde, vekt, alder, sivilstatus, kjønn, utdanningsnivå og AFQT-skår.

# A tibble: 7,006 × 8
   income height weight   age marital  sex    education  afqt
    <int>  <dbl>  <int> <int> <fct>    <fct>      <int> <dbl>
 1  19000     60    155    53 married  female        13  6.84
 2  35000     70    156    51 married  female        10 49.4 
 3 105000     65    195    52 married  male          16 99.4 
 4  40000     63    197    54 married  female        14 44.0 
 5  75000     66    190    49 married  male          14 59.7 
 6 102000     68    200    49 divorced female        18 98.8 
 7      0     74    225    48 married  male          16 82.3 
 8  70000     64    160    54 divorced female        12 50.3 
 9  60000     69    162    55 divorced male          12 89.7 
10 150000     69    194    54 divorced male          13 96.0 
# ℹ 6,996 more rows

Fire variabler, inntekt, alder, kjønn og sivilstatus, er relevante for denne oppgaven. Før analysen ble variablene i datasettet gitt nye navn, og datasettet ble ryddet ved å fjerne observasjoner med manglende verdier (NA) og nullverdier. De resterende observasjonene utgjør grunnlaget for videre analyse.

# A tibble: 5,266 × 4
   inntekt alder kjonn  sivilstatus
     <int> <int> <fct>  <fct>      
 1   19000    53 female married    
 2   35000    51 female married    
 3  105000    52 male   married    
 4   40000    54 female married    
 5   75000    49 male   married    
 6  102000    49 female divorced   
 7   70000    54 female divorced   
 8   60000    55 male   divorced   
 9  150000    54 male   divorced   
10  115000    53 female married    
# ℹ 5,256 more rows
…
